Forests of the Future: Week 7 Lecture • fofpack
…
Test Set

Split off a test set to evaluate model at the very end!

set.seed(1234)
data_split <- initial_split(fish_dat, 0.8, strata = Presence)

train_data <- training(data_split)
test_data <- testing(data_split)

train_data

## # A tibble: 308 × 25
##    SpeciesName   SiteC…¹ Abund…² Sampl…³ MeanT…⁴ MinTe…⁵ MaxTe…⁶ SDTem…⁷ ECOre…⁸
##    <chr>         <chr>     <dbl>   <dbl>   <dbl>   <dbl>   <dbl>   <dbl> <fct>  
##  1 Thalassoma p… AND2          0     164    17.6    14.1    22.8    2.85 Albora…
##  2 Thalassoma p… AND25         0     173    19.0    14.0    25.4    4.01 Albora…
##  3 Thalassoma p… AND37         0     173    19.1    14.0    26.1    4.20 Albora…
##  4 Thalassoma p… AND43         0     173    18.9    14.3    25.3    3.66 Albora…
##  5 Thalassoma p… AND50         0     164    18.2    14.2    23.5    3.02 Albora…
##  6 Thalassoma p… AND51         0     164    18.3    14.1    23.8    3.12 Albora…
##  7 Thalassoma p… AND54         0     173    18.6    14.2    24.6    3.41 Albora…
##  8 Thalassoma p… AND56         0     164    17.8    14.2    22.1    2.66 Albora…
##  9 Thalassoma p… AND60         0     164    18.4    14.9    22.2    2.53 Sahara…
## 10 Thalassoma p… AND63         0     173    18.9    14.4    26.3    3.85 Albora…
## # … with 298 more rows, 16 more variables: Presence <fct>, OLRE <fct>,
## #   MaxAbundance <dbl>, N_Obs <int>, Confidence_NObs <dbl>, T_Range_Obs <dbl>,
## #   Confidence_TRange_Obs <dbl>, N_Absences_T_Upper <int>,
## #   N_Absences_T_Lower <int>, Confidence_Occ_Tupper <dbl>,
## #   Confidence_Occ_Tlower <dbl>, T_Upper_Absences <dbl>,
## #   T_Lower_Absences <dbl>, T_Mean_Absences <dbl>, NEOLI <dbl>,
## #   Depth_Site <dbl>, and abbreviated variable names ¹​SiteCode, …

test_data

## # A tibble: 77 × 25
##    SpeciesName   SiteC…¹ Abund…² Sampl…³ MeanT…⁴ MinTe…⁵ MaxTe…⁶ SDTem…⁷ ECOre…⁸
##    <chr>         <chr>     <dbl>   <dbl>   <dbl>   <dbl>   <dbl>   <dbl> <fct>  
##  1 Thalassoma p… AND1          3     217    17.5    14.1    22.6    2.75 Albora…
##  2 Thalassoma p… AND12       100     173    18.5    14.0    24.7    3.67 Albora…
##  3 Thalassoma p… AND16         0     173    18.8    14.0    25.2    3.89 Albora…
##  4 Thalassoma p… AND18        13     173    18.9    14.0    25.2    3.92 Albora…
##  5 Thalassoma p… AND19         1     173    19.0    14.0    25.5    4.08 Albora…
##  6 Thalassoma p… AND21        11     173    18.8    14.0    25.2    3.87 Albora…
##  7 Thalassoma p… AND27        14     173    19.0    14.0    25.5    4.08 Albora…
##  8 Thalassoma p… AND29        17     173    19.0    14.0    25.4    4.03 Albora…
##  9 Thalassoma p… AND3          8     164    17.7    14.1    22.9    2.90 Albora…
## 10 Thalassoma p… AND4          0     164    17.9    14.1    23.3    3.01 Albora…
## # … with 67 more rows, 16 more variables: Presence <fct>, OLRE <fct>,
## #   MaxAbundance <dbl>, N_Obs <int>, Confidence_NObs <dbl>, T_Range_Obs <dbl>,
## #   Confidence_TRange_Obs <dbl>, N_Absences_T_Upper <int>,
## #   N_Absences_T_Lower <int>, Confidence_Occ_Tupper <dbl>,
## #   Confidence_Occ_Tlower <dbl>, T_Upper_Absences <dbl>,
## #   T_Lower_Absences <dbl>, T_Mean_Absences <dbl>, NEOLI <dbl>,
## #   Depth_Site <dbl>, and abbreviated variable names ¹​SiteCode, …
…
Create Hyperparameter Grid

tree_grid <- grid_regular(trees(range = c(0, 5), trans = scales::log_trans()),
                          learn_rate(),
                          levels = 5)
tree_grid

## # A tibble: 25 × 2
##    trees   learn_rate
##    <int>        <dbl>
##  1     1 0.0000000001
##  2     3 0.0000000001
##  3    12 0.0000000001
##  4    42 0.0000000001
##  5   148 0.0000000001
##  6     1 0.0000000178
##  7     3 0.0000000178
##  8    12 0.0000000178
##  9    42 0.0000000178
## 10   148 0.0000000178
## # … with 15 more rows
…
Pine Rocklands is ‘the species’ being modelled, the presence or
absence of different plants are the ‘environmental variables’

In the assignment this week we will all attempt this model bu using
different models and / or parameters

Let’s Go Through the Model Together

data("IRC")
data("parks_LC")

parks_LC

## # A tibble: 2,279 × 6
## # Groups:   area_name [191]
##    area_name                NAME_STATE              area    prop  long   lat
##    <chr>                    <chr>                  <dbl>   <dbl> <dbl> <dbl>
##  1 A.D. Doug Barnes Park    Cultural - Lacustrine 10883. 0.0452  -80.3  25.7
##  2 A.D. Doug Barnes Park    Cultural - Riverine     427. 0.00177 -80.3  25.7
##  3 A.D. Doug Barnes Park    High Intensity Urban  13304. 0.0552  -80.3  25.7
##  4 A.D. Doug Barnes Park    Low Intensity Urban   98732. 0.410   -80.3  25.7
##  5 A.D. Doug Barnes Park    Pine Rockland         27187. 0.113   -80.3  25.7
##  6 A.D. Doug Barnes Park    Rockland Hammock      11383. 0.0472  -80.3  25.7
##  7 A.D. Doug Barnes Park    Transportation        79099. 0.328   -80.3  25.7
##  8 Alice C. Wainwright Park Estuarine              2605. 0.0342  -80.2  25.7
##  9 Alice C. Wainwright Park Low Intensity Urban   11727. 0.154   -80.2  25.7
## 10 Alice C. Wainwright Park Mesic Hammock         12842. 0.169   -80.2  25.7
## # … with 2,269 more rows

Parks that have Pine Rockland:

PR_parks <- parks_LC %>%
  filter(NAME_STATE == "Pine Rockland",
         prop > 0.05)

PR_parks

## # A tibble: 36 × 6
## # Groups:   area_name [36]
##    area_name                NAME_STATE       area   prop  long   lat
##    <chr>                    <chr>           <dbl>  <dbl> <dbl> <dbl>
##  1 A.D. Doug Barnes Park    Pine Rockland  27187. 0.113  -80.3  25.7
##  2 Bill Sadowski Park       Pine Rockland  25214. 0.240  -80.3  25.6
##  3 Black Creek Forest       Pine Rockland  13477. 0.472  -80.4  25.6
##  4 Boystown Pineland        Pine Rockland 266155. 0.857  -80.4  25.7
##  5 Camp Owaissa Bauer       Pine Rockland 191352. 0.510  -80.5  25.5
##  6 Coral Reef Park          Pine Rockland  16226. 0.0873 -80.3  25.6
##  7 Deering Estate at Cutler Pine Rockland 316857. 0.222  -80.3  25.6
##  8 Eachus Pineland          Pine Rockland  57121. 0.817  -80.4  25.6
##  9 Florida City Pineland    Pine Rockland  77510. 0.783  -80.5  25.4
## 10 George N. Avery Pineland Pine Rockland   6298. 0.655  -80.4  25.5
## # … with 26 more rows
…
PR_parks <- parks_LC %>%
  select(area_name) %>%
  distinct() %>%
  left_join(PR_parks %>%
              mutate(Pine_Rockland = "Present") %>%
              select(area_name, Pine_Rockland)) %>%
  mutate(Pine_Rockland = ifelse(is.na(Pine_Rockland), "Absent", Pine_Rockland) %>%
           as.factor())

## Joining, by = "area_name"

PR_parks

## # A tibble: 191 × 2
## # Groups:   area_name [191]
##    area_name                                               Pine_Rockland
##    <chr>                                                   <fct>        
##  1 A.D. Doug Barnes Park                                   Present      
##  2 Alice C. Wainwright Park                                Absent       
##  3 Allapattah Flats Wildlife Management Area               Absent       
##  4 Amberjack Slough                                        Absent       
##  5 Arch Creek Park                                         Absent       
##  6 Arthur R. Marshall Loxahatchee National Wildlife Refuge Absent       
##  7 Bahia Honda State Park                                  Absent       
##  8 Bartlett Estate                                         Absent       
##  9 Beachwalk Pasley Park                                   Absent       
## 10 Big and Little George Hammocks                          Absent       
## # … with 181 more rows

Now for our predictors. Introducing pivot_wider() from
tidyr

spec_preds <- IRC %>%
  mutate(Occurrence = ifelse(Occurrence == "Present", 1, 0)) %>%
  select(area_name, ScientificName, Occurrence) %>%
  distinct(area_name, ScientificName, .keep_all = TRUE) %>%
  pivot_wider(names_from = ScientificName,
              values_from = Occurrence)

spec_preds

## # A tibble: 205 × 2,324
##    area_name     Abelm…¹ Abild…² Abrus…³ Abuti…⁴ Abuti…⁵ Acaci…⁶ Acaci…⁷ Acaly…⁸
##    <chr>           <dbl>   <dbl>   <dbl>   <dbl>   <dbl>   <dbl>   <dbl>   <dbl>
##  1 A.D. Doug Ba…       0       0       1       0       0       0       0       0
##  2 Alice C. Wai…       0       0       1       0       0       1       0       0
##  3 Allapattah F…       0       0       0       0       0       0       0       0
##  4 Amberjack Sl…       0       0       0       0       0       0       0       0
##  5 Arch Creek P…       0       0       1       0       0       0       0       0
##  6 Arthur R. Ma…       0       0       1       0       0       1       0       0
##  7 Bahia Honda …       0       1       0       0       0       0       0       0
##  8 Bartlett Est…       0       0       0       0       0       0       0       0
##  9 Beachwalk Pa…       0       0       0       0       0       0       0       0
## 10 Big and Litt…       0       1       1       0       0       0       0       1
## # … with 195 more rows, 2,315 more variables:
## #   `Acalypha amentacea subsp. wilkesiana` <dbl>, `Acalypha arvensis` <dbl>,
## #   `Acalypha chamaedrifolia` <dbl>, `Acalypha gracilens` <dbl>,
## #   `Acalypha hispida` <dbl>, `Acalypha ostryifolia` <dbl>,
## #   `Acanthocereus tetragonus` <dbl>, `Acanthospermum hispidum` <dbl>,
## #   `Acer rubrum` <dbl>, `Achyranthes aspera var. aspera` <dbl>,
## #   `Achyranthes aspera var. pubescens` <dbl>, `Acisanthera quadrata` <dbl>, …

Merge the data.

PR_parks <- PR_parks %>%
  left_join(spec_preds)

## Joining, by = "area_name"

PR_parks

## # A tibble: 191 × 2,325
## # Groups:   area_name [191]
##    area_name     Pine_…¹ Abelm…² Abild…³ Abrus…⁴ Abuti…⁵ Abuti…⁶ Acaci…⁷ Acaci…⁸
##    <chr>         <fct>     <dbl>   <dbl>   <dbl>   <dbl>   <dbl>   <dbl>   <dbl>
##  1 A.D. Doug Ba… Present       0       0       1       0       0       0       0
##  2 Alice C. Wai… Absent        0       0       1       0       0       1       0
##  3 Allapattah F… Absent        0       0       0       0       0       0       0
##  4 Amberjack Sl… Absent        0       0       0       0       0       0       0
##  5 Arch Creek P… Absent        0       0       1       0       0       0       0
##  6 Arthur R. Ma… Absent        0       0       1       0       0       1       0
##  7 Bahia Honda … Absent        0       1       0       0       0       0       0
##  8 Bartlett Est… Absent        0       0       0       0       0       0       0
##  9 Beachwalk Pa… Absent        0       0       0       0       0       0       0
## 10 Big and Litt… Absent        0       1       1       0       0       0       0
## # … with 181 more rows, 2,316 more variables: `Acalypha alopecuroidea` <dbl>,
## #   `Acalypha amentacea subsp. wilkesiana` <dbl>, `Acalypha arvensis` <dbl>,
## #   `Acalypha chamaedrifolia` <dbl>, `Acalypha gracilens` <dbl>,
## #   `Acalypha hispida` <dbl>, `Acalypha ostryifolia` <dbl>,
## #   `Acanthocereus tetragonus` <dbl>, `Acanthospermum hispidum` <dbl>,
## #   `Acer rubrum` <dbl>, `Achyranthes aspera var. aspera` <dbl>,
## #   `Achyranthes aspera var. pubescens` <dbl>, `Acisanthera quadrata` <dbl>, …
…
