Forests of the Future Week 6 Lecture • fofpack
…
We will also test our model by creating a test set

Split off a test set:

set.seed(1234)
data_split <- initial_split(fish_dat, 0.8, strata = Presence)

train_data <- training(data_split)
test_data <- testing(data_split)

train_data

## # A tibble: 308 × 25
##    SpeciesName   SiteC…¹ Abund…² Sampl…³ MeanT…⁴ MinTe…⁵ MaxTe…⁶ SDTem…⁷ ECOre…⁸
##    <chr>         <chr>     <dbl>   <dbl>   <dbl>   <dbl>   <dbl>   <dbl> <fct>  
##  1 Thalassoma p… AND2          0     164    17.6    14.1    22.8    2.85 Albora…
##  2 Thalassoma p… AND25         0     173    19.0    14.0    25.4    4.01 Albora…
##  3 Thalassoma p… AND37         0     173    19.1    14.0    26.1    4.20 Albora…
##  4 Thalassoma p… AND43         0     173    18.9    14.3    25.3    3.66 Albora…
##  5 Thalassoma p… AND50         0     164    18.2    14.2    23.5    3.02 Albora…
##  6 Thalassoma p… AND51         0     164    18.3    14.1    23.8    3.12 Albora…
##  7 Thalassoma p… AND54         0     173    18.6    14.2    24.6    3.41 Albora…
##  8 Thalassoma p… AND56         0     164    17.8    14.2    22.1    2.66 Albora…
##  9 Thalassoma p… AND60         0     164    18.4    14.9    22.2    2.53 Sahara…
## 10 Thalassoma p… AND63         0     173    18.9    14.4    26.3    3.85 Albora…
## # … with 298 more rows, 16 more variables: Presence <fct>, OLRE <fct>,
## #   MaxAbundance <dbl>, N_Obs <int>, Confidence_NObs <dbl>, T_Range_Obs <dbl>,
## #   Confidence_TRange_Obs <dbl>, N_Absences_T_Upper <int>,
## #   N_Absences_T_Lower <int>, Confidence_Occ_Tupper <dbl>,
## #   Confidence_Occ_Tlower <dbl>, T_Upper_Absences <dbl>,
## #   T_Lower_Absences <dbl>, T_Mean_Absences <dbl>, NEOLI <dbl>,
## #   Depth_Site <dbl>, and abbreviated variable names ¹​SiteCode, …

test_data

## # A tibble: 77 × 25
##    SpeciesName   SiteC…¹ Abund…² Sampl…³ MeanT…⁴ MinTe…⁵ MaxTe…⁶ SDTem…⁷ ECOre…⁸
##    <chr>         <chr>     <dbl>   <dbl>   <dbl>   <dbl>   <dbl>   <dbl> <fct>  
##  1 Thalassoma p… AND1          3     217    17.5    14.1    22.6    2.75 Albora…
##  2 Thalassoma p… AND12       100     173    18.5    14.0    24.7    3.67 Albora…
##  3 Thalassoma p… AND16         0     173    18.8    14.0    25.2    3.89 Albora…
##  4 Thalassoma p… AND18        13     173    18.9    14.0    25.2    3.92 Albora…
##  5 Thalassoma p… AND19         1     173    19.0    14.0    25.5    4.08 Albora…
##  6 Thalassoma p… AND21        11     173    18.8    14.0    25.2    3.87 Albora…
##  7 Thalassoma p… AND27        14     173    19.0    14.0    25.5    4.08 Albora…
##  8 Thalassoma p… AND29        17     173    19.0    14.0    25.4    4.03 Albora…
##  9 Thalassoma p… AND3          8     164    17.7    14.1    22.9    2.90 Albora…
## 10 Thalassoma p… AND4          0     164    17.9    14.1    23.3    3.01 Albora…
## # … with 67 more rows, 16 more variables: Presence <fct>, OLRE <fct>,
## #   MaxAbundance <dbl>, N_Obs <int>, Confidence_NObs <dbl>, T_Range_Obs <dbl>,
## #   Confidence_TRange_Obs <dbl>, N_Absences_T_Upper <int>,
## #   N_Absences_T_Lower <int>, Confidence_Occ_Tupper <dbl>,
## #   Confidence_Occ_Tlower <dbl>, T_Upper_Absences <dbl>,
## #   T_Lower_Absences <dbl>, T_Mean_Absences <dbl>, NEOLI <dbl>,
## #   Depth_Site <dbl>, and abbreviated variable names ¹​SiteCode, …
…
Bake the recipe

Baking applies the steps to a dataset

train_data_tr <- bake(RF_recipe, train_data)
train_data_tr

## # A tibble: 308 × 3
##    MeanTemp_CoralWatch Depth_Site Presence
##                  <dbl>      <dbl> <fct>   
##  1             -0.761     -1.37   0       
##  2             -0.125     -2.22   0       
##  3             -0.0707     0.555  0       
##  4             -0.150     -1.34   0       
##  5             -0.480     -1.73   0       
##  6             -0.448     -0.645  0       
##  7             -0.300     -0.946  0       
##  8             -0.672      0.144  0       
##  9             -0.369     -0.196  0       
## 10             -0.159     -0.0482 0       
## # … with 298 more rows
…
Bake the test data

We can now easily apply the exact same data manipulation to the test
data

test_data_tr <- bake(RF_recipe, test_data)
test_data_tr

## # A tibble: 77 × 3
##    MeanTemp_CoralWatch Depth_Site Presence
##                  <dbl>      <dbl> <fct>   
##  1             -0.828    -2.00    1       
##  2             -0.315     0.00543 1       
##  3             -0.177    -0.412   0       
##  4             -0.171     0.495   1       
##  5             -0.0972   -2.00    1       
##  6             -0.185    -0.667   1       
##  7             -0.0980   -1.93    1       
##  8             -0.119     0.178   1       
##  9             -0.710    -3.14    1       
## 10             -0.637    -2.64    0       
## # … with 67 more rows
…
Make predictions

Predict the test data

The workflow knows to apply the recipe to the test data first

predict(RF_fit, test_data)

## # A tibble: 77 × 1
##    .pred_class
##    <fct>      
##  1 0          
##  2 1          
##  3 1          
##  4 1          
##  5 1          
##  6 1          
##  7 1          
##  8 1          
##  9 0          
## 10 0          
## # … with 67 more rows

predict(RF_fit, test_data, type = "prob")

## # A tibble: 77 × 2
##    .pred_0 .pred_1
##      <dbl>   <dbl>
##  1  0.916   0.0842
##  2  0.110   0.890 
##  3  0.118   0.882 
##  4  0.0654  0.935 
##  5  0.224   0.776 
##  6  0.0807  0.919 
##  7  0.224   0.776 
##  8  0.136   0.864 
##  9  0.879   0.121 
## 10  0.767   0.233 
## # … with 67 more rows
…
Pine Rocklands Plant Species

data("IRC")
IRC

## # A tibble: 476,255 × 7
##    ScientificName         area_name            Occur…¹ Intro…² size   long   lat
##    <chr>                  <chr>                <chr>   <chr>   <chr> <dbl> <dbl>
##  1 Abelmoschus esculentus A.D. Doug Barnes Pa… Absent  Not in… 60.4… -80.3  25.7
##  2 Abelmoschus esculentus Alice C. Wainwright… Absent  Not in… 21.5… -80.2  25.7
##  3 Abelmoschus esculentus Allapattah Flats Wi… Absent  Not in… 2094… -80.5  27.2
##  4 Abelmoschus esculentus Amberjack Slough     Absent  Not in… 182 … -82.3  26.9
##  5 Abelmoschus esculentus Arch Creek Park      Absent  Not in… 10.3… -80.2  25.9
##  6 Abelmoschus esculentus Arthur R. Marshall … Absent  Not in… 1484… -80.2  26.5
##  7 Abelmoschus esculentus Bahia Honda State P… Absent  Not in… 491.… -81.3  24.7
##  8 Abelmoschus esculentus Bartlett Estate      Absent  Not in… 35 a… -80.1  26.1
##  9 Abelmoschus esculentus Beachwalk Pasley Pa… Absent  Not in… 17 a… -80.2  27.2
## 10 Abelmoschus esculentus Big and Little Geor… Absent  Not in… 18.2… -80.4  25.6
## # … with 476,245 more rows, and abbreviated variable names ¹​Occurrence,
## #   ²​Introduced
…
